2020-11-26T15:08:56+00:00 NOTICE action_scheduler.queue_job :: MailChimp_WooCommerce_Cart_Update queued :: obj_id 87d2d903758dbc9e78af3f32e049f9db
2020-11-26T15:08:58+00:00 NOTICE abandoned_cart.success :: email: tapiban213@testbnk.com :: checkout_url: https://www.sdexpress.me/checkout/?mc_cart_id=87d2d903758dbc9e78af3f32e049f9db
2020-11-26T15:08:58+00:00 NOTICE cart.member.updated :: Updated tapiban213@testbnk.com subscriber status to transactional and language to bs
2020-11-26T15:11:16+00:00 NOTICE action_scheduler.queue_job :: MailChimp_WooCommerce_Cart_Update queued :: obj_id 87d2d903758dbc9e78af3f32e049f9db
2020-11-26T15:11:36+00:00 NOTICE abandoned_cart.success :: email: tapiban213@testbnk.com :: checkout_url: https://www.sdexpress.me/checkout/?mc_cart_id=87d2d903758dbc9e78af3f32e049f9db
